{
	"project" : "Linked List",
	"source" : "LLIST_SORT",
	"title" : "Linked List : Sorting Algorithms",	
	"description" : "This is a bubble sort module for the linked list implementation.",
	"author" : "Mihael Schmidt",
	"date" : "17.02.2009"
}
